Imdb
…
  #scale_y_log10() +

imdb_df %>% 
  group_by(genre) %>% 
  summarize(n=n()) %>% 
  arrange(desc(n)) 

## # A tibble: 112 x 2
##    genre                                          n
##    <chr>                                      <int>
##  1 "Drama            "                           18
##  2 "Comedy            "                          13
##  3 "Drama, Romance            "                  11
##  4 "Comedy, Drama            "                   10
##  5 "Horror, Thriller            "                10
##  6 "Animation, Adventure, Comedy            "     9
##  7 "Biography, Drama, History            "        9
##  8 "Action, Adventure, Fantasy            "       8
##  9 "Crime, Drama, Mystery            "            8
## 10 "Drama, Thriller            "                  8
## # ... with 102 more rows
…
imdb_df %>% 
  select(gross, actor1, actor2,actor3,actor4) %>% 
  group_by(gross, actor1, actor2 , actor3, actor4) %>% 
  summarise(mean(gross))

## # A tibble: 300 x 6
## # Groups:   gross, actor1, actor2, actor3 [?]
##     gross actor1               actor2    actor3    actor4    `mean(gross)`
##     <dbl> <chr>                <chr>     <chr>     <chr>             <dbl>
##  1 0      Jennifer Jason Leigh Bella Th Mckenna  Cameron         0     
##  2 0.0100 Dakota Fanning       Toni Col Alice Eve River Al        0.0100
##  3 0.0100 David Lee Smith      John Bil Brittany William         0.0100
##  4 0.0100 Emily Browning       Adam Hor Mary-Lou Lily Rabe        0.0100
##  5 0.0100 James Franco         Scott Ha Taryn Ma Francesc        0.0100
##  6 0.0100 Jon Bernthal         Imogen P Rosemari Christop        0.0100
##  7 0.0100 Toby Kebbell         Ben Platt Sofa Ve Jane Sey        0.0100
##  8 0.0300 Dave Davis           Glenn Mo Logan Hu Lorelei         0.0300
##  9 0.0300 Owen Campbell        Charlie  Elizabet Amy Harg        0.0300
## 10 0.0300 Teresa Palmer        Max Riem Matthias Emma Bad        0.0300
## # ... with 290 more rows
…
