Imdb
…
  #scale_y_log10() +

imdb_df %>% 
  group_by(genre) %>% 
  summarize(n=n()) %>% 
  arrange(desc(n)) 

## # A tibble: 89 x 2
##    genre                                          n
##    <chr>                                      <int>
##  1 "Drama, Romance            "                   9
##  2 "Action, Adventure, Fantasy            "       8
##  3 "Comedy, Drama            "                    8
##  4 "Crime, Drama, Mystery            "            8
##  5 "Drama            "                            8
##  6 "Comedy            "                           7
##  7 "Animation, Adventure, Comedy            "     6
##  8 "Biography, Drama            "                 6
##  9 "Biography, Drama, History            "        6
## 10 "Biography, Comedy, Drama            "         5
## # ... with 79 more rows
#count occurances by actors

actors <- as.vector(c(imdb_df$actor1, imdb_df$actor2, imdb_df$actor3, imdb_df$actor4) )

getCount <- function(x) {
  u <- unique(x);
  data.frame(
     value=u,
     count=sapply(u, function(v) { length(which(x==v)) } )
  )
}

getCount(actors) %>% arrange(desc(count)) %>% slice(1:50)

## # A tibble: 50 x 2
##    value              count
##    <fct>              <int>
##  1 Vin Diesel             6
##  2 Channing Tatum         5
##  3 Judi Dench             5
##  4 Jack Black             5
##  5 Kristen Wiig           5
##  6 Michael Cera           5
##  7 Doug Jones             4
##  8 Zendaya                4
##  9 Caleb Landry Jones     4
## 10 Mark Ruffalo           4
## # ... with 40 more rows
…
